…
## make one tidy data frame
spotify2021 <- spotify2021 %>% left_join(features, by='URI') %>%
    select(-URI, -analysis_url, -track_href, -id, -type) %>%
    relocate(week, rank, track, artist, streams, duration_ms, tempo,
             time_signature, key, mode, valence, loudness, danceability,
             energy, speechiness, acousticness, instrumentalness, liveness, uri, url)
write_csv(spotify2021, '2021-12-10-spotify-data.csv')
spotify2021
```

    ## # A tibble: 9,400 × 20
    ##    week        rank track  artist streams duration_ms tempo time_signature   key
    ##    <date>     <dbl> <chr>  <chr>    <dbl>       <dbl> <dbl>          <dbl> <dbl>
    ##  1 2021-01-01     1 Good … SZA       6.32      279204 121.               4     1
    ##  2 2021-01-01     2 Anyone Justi…    6.15      190779 116.               4     2
    ##  3 2021-01-01     3 34+35  Arian…    5.61      173711 110.               4     0
    ##  4 2021-01-01     4 Mood … 24kGo…    5.58      140526  91.0              4     7
    ##  5 2021-01-01     5 Lemon… Inter…    5.37      195429 140.               4     1
    ##  6 2021-01-01     6 DÁKITI Bad B…    5.16      205090 110.               4     4
    ##  7 2021-01-01     7 posit… Arian…    5.10      172325 144.               4     0
    ##  8 2021-01-01     8 Whoop… CJ        4.88      123263 140.               4     3
    ##  9 2021-01-01     9 WITHO… The K…    4.78      161385  93.0              4     0
    ## 10 2021-01-01    10 Blind… The W…    4.44      200040 171.               4     1
    ## # … with 9,390 more rows, and 11 more variables: mode <dbl>, valence <dbl>,
    ## #   loudness <dbl>, danceability <dbl>, energy <dbl>, speechiness <dbl>,
    ## #   acousticness <dbl>, instrumentalness <dbl>, liveness <dbl>, uri <chr>,
    ## #   url <chr>
…
