…
## Starting simple

As I mentioned earlier, the `ordbetareg` package makes it incredibly
easy to fit ordered Beta distributions to your data! First, let’s load
the package and check out our data:

``` r
library(ordbetareg)

d.cause
```

    ## # A tibble: 354 × 4
    ##           id vignette condition cause
    ##        <dbl> <chr>    <fct>     <dbl>
    ##  1 718177348 Bu       Abnormal   0.96
    ##  2 718177348 C        Abnormal   1   
    ##  3 718177348 S        Abnormal   1   
    ##  4 718177348 W        Normal     0.59
    ##  5 382027122 B        Normal     0.81
    ##  6 382027122 Bu       Normal     0.7 
    ##  7 382027122 D        Normal     0.84
    ##  8 382027122 W        Normal     0.92
    ##  9 345754483 Bu       Normal     0.66
    ## 10 345754483 Cof      Normal     0.43
    ## # ℹ 344 more rows
…
``` r
library(tidybayes)
library(modelr)

draws.epred <- d.cause %>%
    data_grid(condition) %>%
    add_epred_draws(m.condition)

draws.epred
```

    ## # A tibble: 8,000 × 6
    ## # Groups:   condition, .row [2]
    ##    condition  .row .chain .iteration .draw .epred
    ##    <fct>     <int>  <int>      <int> <int>  <dbl>
    ##  1 Normal        1     NA         NA     1  0.623
    ##  2 Normal        1     NA         NA     2  0.614
    ##  3 Normal        1     NA         NA     3  0.610
    ##  4 Normal        1     NA         NA     4  0.605
    ##  5 Normal        1     NA         NA     5  0.626
    ##  6 Normal        1     NA         NA     6  0.624
    ##  7 Normal        1     NA         NA     7  0.614
    ##  8 Normal        1     NA         NA     8  0.598
    ##  9 Normal        1     NA         NA     9  0.638
    ## 10 Normal        1     NA         NA    10  0.611
    ## # ℹ 7,990 more rows
…
We can see that causal judgments are indeed higher on average in the
abnormal than the normal condition! Next, let’s simulate causal
judgments from this model:

``` r
draws.pred <- d.cause %>%
    data_grid(condition) %>%
    add_predicted_draws(m.condition)

draws.pred
```

    ## # A tibble: 8,000 × 6
    ## # Groups:   condition, .row [2]
    ##    condition  .row .chain .iteration .draw .prediction
    ##    <fct>     <int>  <int>      <int> <int>       <dbl>
    ##  1 Normal        1     NA         NA     1       1    
    ##  2 Normal        1     NA         NA     2       0.681
    ##  3 Normal        1     NA         NA     3       0.187
    ##  4 Normal        1     NA         NA     4       0.264
    ##  5 Normal        1     NA         NA     5       0.659
    ##  6 Normal        1     NA         NA     6       1    
    ##  7 Normal        1     NA         NA     7       1    
    ##  8 Normal        1     NA         NA     8       0.717
    ##  9 Normal        1     NA         NA     9       0.781
    ## 10 Normal        1     NA         NA    10       0.592
    ## # ℹ 7,990 more rows
…
